[
  {
    "tag": "cms:image",
    "attrs": [
      {
        "name": "begin",
        "valueType": "number",
        "valueEnum": null
      },
      {
        "name": "page",
        "valueType": "boolean",
        "valueEnum": [
          "true",
          "false"
        ]
      },
      {
        "name": "pagesize",
        "valueType": "number",
        "valueEnum": null
      },
      {
        "name": "count",
        "valueType": "number",
        "valueEnum": null
      },
      {
        "name": "condition",
        "valueType": "var",
        "valueEnum": null
      },
      {
        "name": "siteid",
        "valueType": "var",
        "valueEnum": null
      },
      {
        "name": "imageid",
        "valueType": "number",
        "valueEnum": null
      },
      {
        "name": "imagegroupid",
        "valueType": "number",
        "valueEnum": null
      }
    ],
    "typeText": "ZCMS图片列表标签"
  },
  {
    "tag": "cms:file",
    "attrs": [
      {
        "name": "begin",
        "valueType": "number",
        "valueEnum": null
      },
      {
        "name": "page",
        "valueType": "boolean",
        "valueEnum": [
          "true",
          "false"
        ]
      },
      {
        "name": "pagesize",
        "valueType": "number",
        "valueEnum": null
      },
      {
        "name": "count",
        "valueType": "number",
        "valueEnum": null
      },
      {
        "name": "condition",
        "valueType": "var",
        "valueEnum": null
      },
      {
        "name": "loadextend",
        "valueType": "boolean",
        "valueEnum": [
          "true",
          "false"
        ]
      },
      {
        "name": "loadcontent",
        "valueType": "boolean",
        "valueEnum": [
          "true",
          "false"
        ]
      },
      {
        "name": "siteid",
        "valueType": "number",
        "valueEnum": null
      },
      {
        "name": "catalogid",
        "valueType": "var",
        "valueEnum": null
      },
      {
        "name": "catalog",
        "valueType": "var",
        "valueEnum": null
      },
      {
        "name": "hasattribute",
        "valueType": "var",
        "valueEnum": null
      },
      {
        "name": "minweight",
        "valueType": "var",
        "valueEnum": null
      },
      {
        "name": "maxweight",
        "valueType": "var",
        "valueEnum": null
      },
      {
        "name": "flags",
        "valueType": "var",
        "valueEnum": null
      },
      {
        "name": "orderby",
        "valueType": "var",
        "valueEnum": null
      },
      {
        "name": "type",
        "valueType": "var",
        "valueEnum": [
          "Recent",
          "Hot"
        ]
      },
      {
        "name": "level",
        "valueType": "var",
        "valueEnum": [
          "Child",
          "Root",
          "Current",
          "CurrentAndChild"
        ]
      }
    ],
    "typeText": "ZCMS文件列表标签"
  }
]